Facilitate Clinical Trials Analysis Using Natural Cubic Splines • splinetrials
…
pbcseq_mod
#> # A tibble: 1,906 × 23
#>       id visit_index sch_visit_years sch_visit_label trt     futime status   age
#>    <int> <ord>                 <dbl> <chr>           <fct>    <int>  <int> <dbl>
#>  1     1 Baseline                0   Baseline        treatm…    400      2  58.8
#>  2     1 0.5 yr                  0.5 0.5 yr          treatm…    400      2  58.8
#>  3     2 Baseline                0   Baseline        treatm…   5169      0  56.4
#>  4     2 0.5 yr                  0.5 0.5 yr          treatm…   5169      0  56.4
#>  5     2 1 yr                    1   1 yr            treatm…   5169      0  56.4
#>  6     2 2 yr                    2   2 yr            treatm…   5169      0  56.4
#>  7     2 5 yr                    5   5 yr            treatm…   5169      0  56.4
#>  8     2 6 yr                    6   6 yr            treatm…   5169      0  56.4
#>  9     2 7 yr                    7   7 yr            treatm…   5169      0  56.4
#> 10     2 8 yr                    8   8 yr            treatm…   5169      0  56.4
#> # ℹ 1,896 more rows
#> # ℹ 15 more variables: sex <fct>, day <int>, ascites <int>, hepato <int>,
#> #   spiders <int>, edema <dbl>, bili <dbl>, chol <int>, albumin <dbl>,
#> #   alk.phos <int>, ast <dbl>, platelet <int>, protime <dbl>, stage <int>,
#> #   years <dbl>
…
    arm = trt,
    control_group = "control",
    time_observed_continuous = years,
    time_observed_index = visit_index,
    time_scheduled_continuous = sch_visit_years,
    time_scheduled_label = sch_visit_label,
    covariates = ~ age + sex + bili + albumin + ast + protime
  )
#> → The covariance structure `"us"` did not successfully converge.
#> Warning in mmrm::mmrm(method = "Satterthwaite", formula = alk.phos ~
#> spline_fn(years)[, : Divergence with optimizer L-BFGS-B due to problems:
#> L-BFGS-B needs finite values of 'fn'
#> mmrm() registered as emmeans extension
pbc_spline_analysis
#> # A tibble: 32 × 32
#>    arm     time         n   est    sd    se lower upper response_est response_se
#>    <fct>   <chr>    <int> <dbl> <dbl> <dbl> <dbl> <dbl>        <dbl>       <dbl>
#>  1 control Baseline   154 1943. 2102. 169.  1611. 2275.        1424.        77.0
#>  2 control 0.5 yr     131 1574. 1134.  99.1 1379. 1768.        1377.        71.9
#>  3 control 1 yr       130 1543.  934.  81.9 1382. 1703.        1330.        68.6
#>  4 control 2 yr       111 1481. 1076. 102.  1281. 1681.        1243.        67.2
#>  5 control 3 yr        83 1252.  662.  72.7 1110. 1395.        1169.        69.1
#>  6 control 4 yr        75 1182.  716.  82.7 1020. 1344.        1107.        71.0
#>  7 control 5 yr        61 1250.  902. 115.  1023. 1476.        1058.        71.1
#>  8 control 6 yr        56 1073.  589.  78.7  919. 1228.        1019.        69.4
#>  9 control 7 yr        47 1022.  601.  87.6  851. 1194.         989.        66.6
#> 10 control 8 yr        37 1021.  554.  91.1  842. 1199.         968.        64.4
#> # ℹ 22 more rows
#> # ℹ 22 more variables: response_df <dbl>, response_lower <dbl>,
#> #   response_upper <dbl>, change_est <dbl>, change_se <dbl>, change_df <dbl>,
#> #   change_lower <dbl>, change_upper <dbl>, change_test_statistic <dbl>,
#> #   change_p_value <dbl>, diff_est <dbl>, diff_se <dbl>, diff_df <dbl>,
#> #   diff_lower <dbl>, diff_upper <dbl>, diff_test_statistic <dbl>,
#> #   diff_p_value <dbl>, percent_slowing_est <dbl>, …
…
This function returns a list of multiple analyses, which are better looked at one at a time:

Between subgroups and within subgroups

The between and within tables contain the same data except for the treatment effect columns. Note also that they are sorted differently.

between

The between table calculates treatment effects between the subgroups within each study arm:

subgroup_analysis_results$between
#> # A tibble: 62 × 30
#>    arm       time     subgroup     n   est    sd    se lower upper response_est
#>    <fct>     <chr>    <fct>    <int> <dbl> <dbl> <dbl> <dbl> <dbl>        <dbl>
#>  1 control   Baseline f          139 1966. 2066. 175.  1622. 2309.        1429.
#>  2 control   Baseline m           15 1734. 2478. 640.   480. 2989.        1640.
#>  3 treatment Baseline f          137 1950. 2151. 184.  1590. 2310.        1429.
#>  4 treatment Baseline m           21 2486. 2385. 521.  1466. 3506.        1640.
#>  5 control   0.5 yr   f          119 1619. 1162. 106.  1410. 1827.        1377.
#>  6 control   0.5 yr   m           12 1134.  714. 206.   730. 1538.        1572.
#>  7 treatment 0.5 yr   f          108 1348.  818.  78.7 1194. 1502.        1385.
#>  8 treatment 0.5 yr   m           17 1646.  821. 199.  1256. 2037.        1592.
#>  9 control   1 yr     f          118 1575.  944.  86.9 1405. 1745.        1325.
#> 10 control   1 yr     m           12 1229.  796. 230.   778. 1679.        1506.
#> # ℹ 52 more rows
#> # ℹ 20 more variables: response_se <dbl>, response_df <dbl>,
#> #   response_lower <dbl>, response_upper <dbl>, change_est <dbl>,
#> #   change_se <dbl>, change_df <dbl>, change_lower <dbl>, change_upper <dbl>,
#> #   change_test_statistic <dbl>, change_p_value <dbl>, diff_subgroup_est <dbl>,
#> #   diff_subgroup_se <dbl>, diff_subgroup_df <dbl>, diff_subgroup_lower <dbl>,
#> #   diff_subgroup_upper <dbl>, diff_subgroup_test_statistic <dbl>, …

within

The within table calculates treatment effects between each study arm within each subgroup:

subgroup_analysis_results$within
#> # A tibble: 62 × 33
#>    arm     time     subgroup     n   est    sd    se lower upper response_est
#>    <fct>   <chr>    <fct>    <int> <dbl> <dbl> <dbl> <dbl> <dbl>        <dbl>
#>  1 control Baseline f          139 1966. 2066. 175.  1622. 2309.        1429.
#>  2 control 0.5 yr   f          119 1619. 1162. 106.  1410. 1827.        1377.
#>  3 control 1 yr     f          118 1575.  944.  86.9 1405. 1745.        1325.
#>  4 control 2 yr     f          100 1527. 1109. 111.  1310. 1744.        1230.
#>  5 control 3 yr     f           74 1271.  685.  79.6 1115. 1427.        1151.
#>  6 control 4 yr     f           68 1193.  743.  90.2 1016. 1369.        1088.
#>  7 control 5 yr     f           54 1297.  949. 129.  1044. 1550.        1040.
#>  8 control 6 yr     f           49 1093.  619.  88.5  920. 1266.        1005.
#>  9 control 7 yr     f           40 1049.  641. 101.   850. 1247.         981.
#> 10 control 8 yr     f           31 1088.  575. 103.   885. 1290.         969.
#> # ℹ 52 more rows
#> # ℹ 23 more variables: response_se <dbl>, response_df <dbl>,
#> #   response_lower <dbl>, response_upper <dbl>, change_est <dbl>,
#> #   change_se <dbl>, change_df <dbl>, change_lower <dbl>, change_upper <dbl>,
#> #   change_test_statistic <dbl>, change_p_value <dbl>, diff_arm_est <dbl>,
#> #   diff_arm_se <dbl>, diff_arm_df <dbl>, diff_arm_lower <dbl>,
#> #   diff_arm_upper <dbl>, diff_arm_test_statistic <dbl>, …
…
