…
``` r
results_table
#> # A tibble: 24 × 32
#>    arm     time         n   est    sd    se lower upper response_est response_se
#>    <fct>   <chr>    <int> <dbl> <dbl> <dbl> <dbl> <dbl>        <dbl>       <dbl>
#>  1 active1 Baseline    19 10.0  1.04  0.240  9.57 10.5          9.95       0.127
#>  2 active1 visit 3     19  9.13 0.909 0.208  8.72  9.54         9.40       0.105
#>  3 active1 visit 4     19  9.02 1.10  0.253  8.53  9.52         8.94       0.144
#>  4 active1 visit 5     19  9.08 0.969 0.222  8.65  9.52         8.69       0.138
#>  5 active1 visit 7     19  8.57 1.17  0.268  8.05  9.10         8.63       0.134
#>  6 active1 visit 8     19  8.72 0.861 0.198  8.34  9.11         8.70       0.150
#>  7 active1 visit 9     19  9.16 1.21  0.278  8.61  9.70         8.84       0.126
#>  8 active1 visit 12    19  8.83 0.851 0.195  8.45  9.21         9.03       0.183
#>  9 active2 Baseline    13 10.3  0.883 0.245  9.82 10.8          9.95       0.127
#> 10 active2 visit 3     13  8.49 1.10  0.304  7.90  9.09         9.19       0.120
#> # ℹ 14 more rows
#> # ℹ 22 more variables: response_df <dbl>, response_lower <dbl>,
#> #   response_upper <dbl>, change_est <dbl>, change_se <dbl>, change_df <dbl>,
#> #   change_lower <dbl>, change_upper <dbl>, change_test_statistic <dbl>,
#> #   change_p_value <dbl>, diff_est <dbl>, diff_se <dbl>, diff_df <dbl>,
#> #   diff_lower <dbl>, diff_upper <dbl>, diff_test_statistic <dbl>,
#> #   diff_p_value <dbl>, percent_slowing_est <dbl>, …
```
…
We can plot the model against the data.

``` r
ncs_plot_means_subgroup(subgroup_results$within)
```

<img src="man/figures/README-plot_means_subgroup-1.png" width="100%" />

Between-subgroup table:

``` r
subgroup_results$between
#> # A tibble: 72 × 30
#>    arm     time     subgroup      n   est    sd    se lower upper response_est
#>    <fct>   <chr>    <fct>     <int> <dbl> <dbl> <dbl> <dbl> <dbl>        <dbl>
#>  1 active1 Baseline subgroup1    13 10.2  1.05  0.292  9.60 10.7          9.83
#>  2 active1 Baseline subgroup2    14  9.72 1.19  0.317  9.10 10.3          9.85
#>  3 active1 Baseline subgroup3    13  9.81 1.14  0.317  9.18 10.4          9.80
#>  4 active2 Baseline subgroup1    13 10.3  1.60  0.444  9.39 11.1          9.83
#>  5 active2 Baseline subgroup2    13 10.1  1.06  0.295  9.53 10.7          9.85
#>  6 active2 Baseline subgroup3    14  9.92 0.741 0.198  9.53 10.3          9.80
#>  7 control Baseline subgroup1    14 10.2  1.20  0.320  9.52 10.8          9.83
#>  8 control Baseline subgroup2    13 10.3  1.45  0.402  9.50 11.1          9.85
#>  9 control Baseline subgroup3    13  9.88 0.896 0.249  9.39 10.4          9.80
#> 10 active1 visit 3  subgroup1    13  9.26 1.11  0.307  8.66  9.86         9.59
#> # ℹ 62 more rows
#> # ℹ 20 more variables: response_se <dbl>, response_df <dbl>,
#> #   response_lower <dbl>, response_upper <dbl>, change_est <dbl>,
#> #   change_se <dbl>, change_df <dbl>, change_lower <dbl>, change_upper <dbl>,
#> #   change_test_statistic <dbl>, change_p_value <dbl>, diff_subgroup_est <dbl>,
#> #   diff_subgroup_se <dbl>, diff_subgroup_df <dbl>, diff_subgroup_lower <dbl>,
#> #   diff_subgroup_upper <dbl>, diff_subgroup_test_statistic <dbl>, …
```

Within-subgroup table:

``` r
subgroup_results$within
#> # A tibble: 72 × 33
#>    arm     time     subgroup      n   est    sd    se lower upper response_est
#>    <fct>   <chr>    <fct>     <int> <dbl> <dbl> <dbl> <dbl> <dbl>        <dbl>
#>  1 active1 Baseline subgroup1    13 10.2  1.05  0.292  9.60 10.7          9.83
#>  2 active1 visit 3  subgroup1    13  9.26 1.11  0.307  8.66  9.86         9.59
#>  3 active1 visit 4  subgroup1    13  9.25 0.856 0.237  8.78  9.71         9.34
#>  4 active1 visit 5  subgroup1    13  9.42 1.01  0.280  8.87  9.97         9.07
#>  5 active1 visit 7  subgroup1    13  8.80 0.762 0.211  8.39  9.22         8.81
#>  6 active1 visit 8  subgroup1    13  8.82 1.03  0.286  8.26  9.38         8.64
#>  7 active1 visit 9  subgroup1    13  8.56 0.893 0.248  8.08  9.05         8.63
#>  8 active1 visit 12 subgroup1    13  8.72 1.15  0.319  8.09  9.34         8.72
#>  9 active2 Baseline subgroup1    13 10.3  1.60  0.444  9.39 11.1          9.83
#> 10 active2 visit 3  subgroup1    13  8.95 1.10  0.306  8.35  9.55         9.21
#> # ℹ 62 more rows
#> # ℹ 23 more variables: response_se <dbl>, response_df <dbl>,
#> #   response_lower <dbl>, response_upper <dbl>, change_est <dbl>,
#> #   change_se <dbl>, change_df <dbl>, change_lower <dbl>, change_upper <dbl>,
#> #   change_test_statistic <dbl>, change_p_value <dbl>, diff_arm_est <dbl>,
#> #   diff_arm_se <dbl>, diff_arm_df <dbl>, diff_arm_lower <dbl>,
#> #   diff_arm_upper <dbl>, diff_arm_test_statistic <dbl>, …
```
…
